{
  "$schema": "http://json-schema.org/draft-04/schema#",
  "description": "schema for http://{HOST}/maincontractors/id",
    "type":"object",
    "properties" : {
      "id" : {
        "type":"integer"
      },
      "createTime":{
        "type": "integer",
        "minimum": 1400000000
      },
      "updateTime":{
        "type": "integer",
        "minimum": 1400000000
      },
      "name":{
        "type": "string"
      },
      "updateTime":{
        "type":  ["integer", "null"],
        "minimum": 1400000000
      },
      "plannedCompletionDate":{
        "type":  "integer",
        "minimum": 1400000000
      },
      "estimatedCompletionDate":{
        "type":  "integer",
        "minimum": 1400000000
      },
      "completionReport":{
        "type":  ["string", "null"]
      },
      "completionApprovalRequired":{
        "type": "boolean"
      },
      "automatic":{
        "type": "boolean"
      },
      "lostCalendarPlanStageLink":{
        "type": "boolean"
      },
      "createdBy":{
        "type": "object"
      },
      "changedBy":{
        "type": "object"
      },
      "status":{
        "type": "string"
      },
      "statusReport":{
        "type": ["object","null"]
      },
      "approvedFiles":{
        "type": "array"
      },
      "reminders":{
        "type": "array"
      },
      "state":{
        "type": "string"
      },
      "factualProgress":{
        "type": "integer"
      },
      "started":{
        "type": "boolean"
      },
      "startDate":{
        "type":  ["integer", "null"],
        "minimum": 1400000000
      },
      "dependent":{
        "type": "boolean"
      }
    },
    "required":    [
      "id",
      "name",
      "completionReport",
      "completionApprovalRequired",
      "automatic",
      "lostCalendarPlanStageLink",
      "status",
      "started",
      "startDate",
      "dependent"
    ]
  }
