{
  "$schema": "http://json-schema.org/draft-04/schema#",
  "description": "schema for /budgetlines/:id  ",
  "type":"object",
  "properties" : {
    "id" : {
      "type":"integer"
    },
    "updateTime":{
      "type": "integer",
      "minimum": 1300000000000
    },
    "createTime":{
      "type": "integer",
      "minimum": 1300000000000
    },
    "name":{
      "type": "string"
    },
    "shortName":{
      "type":  ["string", "null"]
    },
    "description":{
      "type":  ["string", "null"]
    },
    "controllerPosition":{
      "type": "string"
    },
    "controllerName":{
      "type": "string"
    },
    "level" : {
      "type":"integer"
    }
  },
  "required":["id","name","shortName","description", "level", "createTime"]
}

