{
  "$schema": "http://json-schema.org/draft-04/schema#",
  "description": "schema for http://{HOST}/maincontractors/id",
    "type":"object",
    "properties" : {
      "id" : {
        "type":"integer"
      },
      "name":{
        "type": "string"
      },
      "shortName ":{
        "type": ["string","null"]
      },
      "description ":{
        "type": ["string","null"]
      }
    },
    "required":["id", "name", "shortName","description"]
  }
