{
  "$schema": "http://json-schema.org/draft-04/schema#",
  "description": "schema for http://{HOST}/documents/{id}/versions",
  "type": "array",
  "minItems": 1,
  "uniqueItems": true,
  "items":
  {
    "type":"object",
    "properties" : {
      "id" : {
        "type":"integer"
      },
      "version" : {
        "type":"integer"
      },
      "edition" : {
        "type":"integer"
      },
      "author":{
        "type": "object"
      },
      "documentStatus":{
        "type": "object"
      },
      "files":{
        "type": "array"
      },
      "approvedFiles":{
        "type": "array",
        "minItems": 0
      },
      "editable":{
        "type":"boolean"
      },
      "createTime":{
        "type": "integer",
        "minimum": 1400000000
      },
      "updateTime":{
        "type": "integer",
        "minimum": 1400000000
      },
      "documentStatusUpdated":{
        "type": "integer",
        "minimum": 1400000000
      },
      "approvedPersonName":{
        "type":  ["string", "null"]
      },
      "approvedPersonPosition":{
        "type":  ["string", "null"]
      },
      "approvedDate":{
        "type": ["integer", "null"],
        "minimum": 1400000000
      },
      "name":{
        "type": "string"
      },
      "description":{
        "type":  ["string", "null"]
      }
    },
    "required":["id","name","version","edition",
      "documentStatus","files","approvedFiles","editable","documentStatusUpdated",
      "approvedDate","description"]
  }

}