{
  "$schema": "http://json-schema.org/draft-04/schema#",
  "id": "/",
  "type": "array",
  "items": {
    "type": "object",
    "properties": {
      "startDate": {
        "id": "startDate",
        "type": ["integer","null"]
      },
      "updateTime": {
        "id": "updateTime",
        "type": "integer"
      },
      "statusReport": {
        "id": "statusReport",
        "type": ["object","null"],
        "properties": {
          "reportDate": {
            "id": "reportDate",
            "type": "null"
          },
          "updateTime": {
            "id": "updateTime",
            "type": "integer"
          },
          "period": {
            "id": "period",
            "type": "integer"
          },
          "createTime": {
            "id": "createTime",
            "type": "integer"
          },
          "periodStartDate": {
            "id": "periodStartDate",
            "type": "null"
          },
          "periodic": {
            "id": "periodic",
            "type": "boolean"
          },
          "lastEntry": {
            "id": "lastEntry",
            "type": "null"
          },
          "entries": {
            "id": "entries",
            "type": "array"
          },
          "reminder": {
            "id": "reminder",
            "type": "integer"
          },
          "reportRequired": {
            "id": "reportRequired",
            "type": "boolean"
          },
          "type": {
            "id": "type",
            "type": "string"
          },
          "id": {
            "id": "id",
            "type": "integer"
          }
        }
      },
      "id": {
        "id": "id",
        "type": "integer"
      },
      "completionDate": {
        "id": "completionDate",
        "type": "null"
      },
      "dependent": {
        "id": "dependent",
        "type": "boolean"
      },
      "state": {
        "id": "state",
        "type": "string"
      },
      "plannedCompletionDate": {
        "id": "plannedCompletionDate",
        "type": "integer"
      },
      "status": {
        "id": "status",
        "type": "string"
      },
      "lostCalendarPlanStageLink": {
        "id": "lostCalendarPlanStageLink",
        "type": "boolean"
      },
      "started": {
        "id": "started",
        "type": "boolean"
      },
      "plannedProgress": {
        "id": "plannedProgress",
        "type": "null"
      },
      "createdBy": {
        "id": "createdBy",
        "type": "object",
        "properties": {
          "updateTime": {
            "id": "updateTime",
            "type": "integer"
          },
          "sendEmails": {
            "id": "sendEmails",
            "type": "boolean"
          },
          "roleAccesses": {
            "id": "roleAccesses",
            "type": "array"
          },
          "id": {
            "id": "id",
            "type": "integer"
          },
          "blocked": {
            "id": "blocked",
            "type": "boolean"
          },
          "contacts": {
            "id": "contacts",
            "type": "array"
          },
          "middleName": {
            "id": "middleName",
            "type": ["string","null"]
          },
          "sessionExpired": {
            "id": "sessionExpired",
            "type": "boolean"
          },
          "sid": {
            "id": "sid",
            "type": "string"
          },
          "email": {
            "id": "email",
            "type": "string"
          },
          "description": {
            "id": "description",
            "type": "null"
          },
          "organizationCode": {
            "id": "organizationCode",
            "type": ["null","object"]
          },
          "phone": {
            "id": "phone",
            "type": "null"
          },
          "position": {
            "id": "position",
            "type": "string"
          },
          "shortName": {
            "id": "shortName",
            "type": "string"
          },
          "password": {
            "id": "password",
            "type": "string"
          },
          "createTime": {
            "id": "createTime",
            "type": "integer"
          },
          "name": {
            "id": "name",
            "type": "string"
          },
          "roles": {
            "id": "roles",
            "type": "array"
          },
          "firstName": {
            "id": "firstName",
            "type": "string"
          },
          "lastName": {
            "id": "lastName",
            "type": "string"
          },
          "organization": {
            "id": "organization",
            "type": ["null","object"]
          }
        }
      },
      "estimatedCompletionDate": {
        "id": "estimatedCompletionDate",
        "type": "integer"
      },
      "createTime": {
        "id": "createTime",
        "type": "integer"
      },
      "changedBy": {
        "id": "changedBy",
        "type": "object",
        "properties": {
          "updateTime": {
            "id": "updateTime",
            "type": "integer"
          },
          "sendEmails": {
            "id": "sendEmails",
            "type": "boolean"
          },
          "roleAccesses": {
            "id": "roleAccesses",
            "type": "array"
          },
          "id": {
            "id": "id",
            "type": "integer"
          },
          "blocked": {
            "id": "blocked",
            "type": "boolean"
          },
          "contacts": {
            "id": "contacts",
            "type": "array"
          },
          "middleName": {
            "id": "middleName",
            "type": ["string","null"]
          },
          "sessionExpired": {
            "id": "sessionExpired",
            "type": "boolean"
          },
          "sid": {
            "id": "sid",
            "type": "string"
          },
          "email": {
            "id": "email",
            "type": "string"
          },
          "description": {
            "id": "description",
            "type": "null"
          },
          "organizationCode": {
            "id": "organizationCode",
            "type": "null"
          },
          "phone": {
            "id": "phone",
            "type": "null"
          },
          "position": {
            "id": "position",
            "type": "string"
          },
          "shortName": {
            "id": "shortName",
            "type": "string"
          },
          "password": {
            "id": "password",
            "type": "string"
          },
          "createTime": {
            "id": "createTime",
            "type": "integer"
          },
          "name": {
            "id": "name",
            "type": "string"
          },
          "roles": {
            "id": "roles",
            "type": "array"
          },
          "firstName": {
            "id": "firstName",
            "type": "string"
          },
          "lastName": {
            "id": "lastName",
            "type": "string"
          },
          "organization": {
            "id": "organization",
            "type": ["object","null"]
          }
        }
      },
      "name": {
        "id": "name",
        "type": "string"
      },
      "completionApprovalRequired": {
        "id": "completionApprovalRequired",
        "type": "boolean"
      },
      "reminders": {
        "id": "reminders",
        "type": "array"
      },
      "approvedFiles": {
        "id": "approvedFiles",
        "type": "array"
      },
      "completionReport": {
        "id": "completionReport",
        "type": "null"
      },
      "calendarPlanStage": {
        "id": "calendarPlanStage",
        "type": "object",
        "properties": {
          "startDate": {
            "id": "startDate",
            "type": ["integer","null"]
          },
          "endDate": {
            "id": "endDate",
            "type": "integer"
          },
          "id": {
            "id": "id",
            "type": "integer"
          },
          "name": {
            "id": "name",
            "type": "string"
          }
        }
      },
      "automatic": {
        "id": "automatic",
        "type": "boolean"
      },
      "factualProgress": {
        "id": "factualProgress",
        "type": "integer"
      }
    },
    "required": [
      "startDate",
      "statusReport",
      "id",
      "completionDate",
      "dependent",
      "state",
      "plannedCompletionDate",
      "status",
      "lostCalendarPlanStageLink",
      "started",
      "plannedProgress",
      "estimatedCompletionDate",
      "name",
      "completionApprovalRequired",
      "reminders",
      "approvedFiles",
      "completionReport",
      "calendarPlanStage",
      "automatic",
      "factualProgress"
    ]
  }
}