{
  "$schema": "http://json-schema.org/draft-04/schema#",
  "description": "schema for /documenttypes/:id  ",
  "type":"object",
 "properties" : {
      "id" : {
        "type":"integer"
      },
      "createTime":{
        "type": "integer",
        "minimum": 1300000000000
      },
      "updateTime":{
        "type": "integer",
        "minimum": 1300000000000
      },
      "maxDocuments":{
        "type": "integer"
      },
      "versioned":{
        "type": "boolean"
      },
      "calendarPlan":{
        "type": "boolean"
      },
      "numbered":{
        "type": "boolean"
      },
      "agreementRequired":{
        "type": "boolean"
      },
      "maxFilesSize":{
        "type": "integer"
      },
      "name":{
        "type": "string"
      },
      "code":{
        "type":  ["string", "null"]
      },
      "documentGroupIds":{
        "type":  "array"
      },
      "description":{
        "type":  ["string", "null"]
      }
    },
  "required":["id","name","shortName", "description", "maxDocuments","versioned" ,"numbered","agreementRequired","maxFilesSize","calendarPlan","documentGroupIds"]
}

