{
  "$schema": "http://json-schema.org/draft-04/schema#",
  "description": "schema for /documentstatuses/:id  ",
  "type":"object",
  "properties" : {
      "id" : {
        "type":"integer"
      },
      "createTime":{
        "type": "integer",
        "minimum": 1300000000000
      },
      "updateTime":{
        "type": "integer",
        "minimum": 1300000000000
      },
      "name":{
        "type": "string"
      },
      "shortName":{
        "type":  ["string", "null"]
      },
      "description":{
        "type":  ["string", "null"]
      }
    },
  "required":["id","name","shortName", "approvable"]
}

