{
  "$schema": "http://json-schema.org/draft-04/schema#",
  "description": "schema for http://{HOST}/maincontractors",
  "type": "array",
  "minItems": 1,
  "uniqueItems": true,
  "items":
  {
    "type":"object",
    "properties" : {
      "id" : {
        "type":"integer"
      },
      "createTime":{
        "type": "integer",
        "minimum": 1400000000
      },
      "name":{
        "type": "string"
      },
      "description":{
        "type":  ["string", "null"]
      },
      "organization":{
        "type":"object"
      }
    },
    "required":["id","createTime","name","description","organization"]
  }

}